…
- `time_series_code` time series code to return, `KBP7096B`
- `output_format` log file to output to

``` r
library(berdata)
library(logger)
library(tidyr)

get_data(time_series_code = "KBP7096B",
         output_format = "codes") %>% 
  drop_na()

# # A tibble: 776 × 2                                  
#    date_col   KBP7096B
#    <date>        <dbl>
#  1 1960-01-01      5.5
#  2 1960-02-01      4.6
#  3 1960-03-01      3.3
#  4 1960-04-01      2.5
#  5 1960-05-01      1.2
#  6 1960-06-01      0.4
#  7 1960-07-01      1.2
#  8 1960-08-01      2.5
#  9 1960-09-01      2.1
# 10 1960-10-01      2.5
# ℹ 766 more rows
# ℹ Use `print(n = ...)` to see more rows
```
If you want to turn on the logging:

``` r
library(berdata)
library(logger)
library(tidyr)

log_threshold(level = DEBUG)
get_data(time_series_code = c("KBP7096B","KBP7008Q", "KBP7203M"),
         output_format = "codes") %>% 
  drop_na()

# DEBUG [2024-10-17 16:15:37] Querying with parameters: [{"data":["KBP7096B","KBP7008Q","KBP7203M"],"interface":["api"],"platform":["R"]}]
# DEBUG [2024-10-17 16:15:38] Total runtime: [0.756s]                                                                                                                                                                            
# A tibble: 604 × 4
#    date_col   KBP7096B KBP7203M KBP7008Q
#    <date>        <dbl>    <dbl>    <dbl>
#  1 1974-05-01      1.2     76        6.3
#  2 1974-06-01      1       67        6.3
#  3 1974-07-01      0.5     58        4.7
#  4 1974-08-01      0.5     49        4.7
#  5 1974-09-01     -0.2     47.7      4.7
#  6 1974-10-01     -1.6     46.3      2.1
#  7 1974-11-01     -3.3     45        2.1
#  8 1974-12-01     -4.4     44        2.1
#  9 1975-01-01     -4.7     43       10  
# 10 1975-02-01     -5.2     42       10  
# ℹ 594 more rows
# ℹ Use `print(n = ...)` to see more rows
```

# Different Formats

## Codes

``` r
library(berdata)
library(tidyr)

get_data(time_series_code = c("KBP7096B","KBP7008Q", "KBP7203M"),
         output_format = "codes") %>% 
  drop_na()

# A tibble: 604 × 4
#    date_col   KBP7096B KBP7203M KBP7008Q
#    <date>        <dbl>    <dbl>    <dbl>
#  1 1974-05-01      1.2     76        6.3
#  2 1974-06-01      1       67        6.3
#  3 1974-07-01      0.5     58        4.7
#  4 1974-08-01      0.5     49        4.7
#  5 1974-09-01     -0.2     47.7      4.7
#  6 1974-10-01     -1.6     46.3      2.1
#  7 1974-11-01     -3.3     45        2.1
#  8 1974-12-01     -4.4     44        2.1
#  9 1975-01-01     -4.7     43       10  
# 10 1975-02-01     -5.2     42       10  
# ℹ 594 more rows
# ℹ Use `print(n = ...)` to see more rows
```

## Names

``` r
library(berdata)
library(tidyr)

get_data(time_series_code = c("KBP7096B","KBP7008Q", "KBP7203M"),
         output_format = "names") %>% 
  drop_na()

# A tibble: 604 × 4
#    date       `Constraints on current manufacturing activities: shortage of raw materials` `Total employment in the private sector` `Coincident indicator of the US`
#    <date>                                                                            <dbl>                                    <dbl>                            <dbl>
#  1 1974-05-01                                                                          1.2                                     76                                6.3
#  2 1974-06-01                                                                          1                                       67                                6.3
#  3 1974-07-01                                                                          0.5                                     58                                4.7
#  4 1974-08-01                                                                          0.5                                     49                                4.7
#  5 1974-09-01                                                                         -0.2                                     47.7                              4.7
#  6 1974-10-01                                                                         -1.6                                     46.3                              2.1
#  7 1974-11-01                                                                         -3.3                                     45                                2.1
#  8 1974-12-01                                                                         -4.4                                     44                                2.1
#  9 1975-01-01                                                                         -4.7                                     43                               10  
# 10 1975-02-01                                                                         -5.2                                     42                               10  
# ℹ 594 more rows
# ℹ Use `print(n = ...)` to see more rows
```
…
